practica1/practica_de_casa/alu.vcd
$date
	Sat Nov  5 21:30:45 2022
$end
$version
	Icarus Verilog
$end
$timescale
	10ps
$end
$scope module alu_tb $end
$var wire 1 ! t_z $end
$var wire 1 " t_s $end
$var wire 1 # t_c $end
$var wire 4 $ t_R [3:0] $end
$var reg 4 % t_A [3:0] $end
$var reg 4 & t_B [3:0] $end
$var reg 2 ' t_Op [1:0] $end
$var reg 1 ( t_l $end
$var integer 32 ) errores [31:0] $end
$scope module mat $end
$var wire 4 * A [3:0] $end
$var wire 2 + ALUOp [1:0] $end
$var wire 4 , B [3:0] $end
$var wire 1 - cin0 $end
$var wire 1 . cp1 $end
$var wire 1 ( l $end
$var wire 1 / op1_A $end
$var wire 1 0 op2_B $end
$var wire 1 ! zero $end
$var wire 1 " sign $end
$var wire 4 1 salida_ul4 [0:3] $end
$var wire 4 2 salida_sum4 [0:3] $end
$var wire 4 3 out_op2 [0:3] $end
$var wire 4 4 out_op1 [0:3] $end
$var wire 4 5 out_mux [0:3] $end
$var wire 1 # carry $end
$var wire 4 6 R [3:0] $end
$scope module complemento $end
$var wire 1 . cpl $end
$var wire 4 7 Inp [3:0] $end
$var reg 4 8 Out [3:0] $end
$upscope $end
$scope module mux1 $end
$var wire 4 9 A [3:0] $end
$var wire 4 : B [3:0] $end
$var wire 1 0 s $end
$var wire 4 ; Out [3:0] $end
$upscope $end
$scope module mux2 $end
$var wire 4 < A [3:0] $end
$var wire 4 = B [3:0] $end
$var wire 1 / s $end
$var wire 4 > Out [3:0] $end
$upscope $end
$scope module mux3 $end
$var wire 1 ( s $end
$var wire 4 ? Out [3:0] $end
$var wire 4 @ B [3:0] $end
$var wire 4 A A [3:0] $end
$upscope $end
$scope module sum $end
$var wire 4 B A [3:0] $end
$var wire 4 C B [3:0] $end
$var wire 1 - c_in $end
$var wire 1 # c_out $end
$var wire 1 D c3 $end
$var wire 1 E c2 $end
$var wire 1 F c1 $end
$var wire 4 G S [3:0] $end
$scope module fa1 $end
$var wire 1 H a $end
$var wire 1 I b $end
$var wire 1 - c_in $end
$var wire 1 J sum $end
$var wire 1 F c_out $end
$upscope $end
$scope module fa2 $end
$var wire 1 K a $end
$var wire 1 L b $end
$var wire 1 F c_in $end
$var wire 1 M sum $end
$var wire 1 E c_out $end
$upscope $end
$scope module fa3 $end
$var wire 1 N a $end
$var wire 1 O b $end
$var wire 1 E c_in $end
$var wire 1 P sum $end
$var wire 1 D c_out $end
$upscope $end
$scope module fa4 $end
$var wire 1 Q a $end
$var wire 1 R b $end
$var wire 1 D c_in $end
$var wire 1 S sum $end
$var wire 1 # c_out $end
$upscope $end
$upscope $end
$scope module ul $end
$var wire 4 T a [3:0] $end
$var wire 4 U b [3:0] $end
$var wire 2 V s [1:0] $end
$var wire 4 W out [3:0] $end
$scope module cl1 $end
$var wire 2 X S [1:0] $end
$var wire 1 Y a $end
$var wire 1 Z b $end
$var reg 1 [ out $end
$upscope $end
$scope module cl2 $end
$var wire 2 \ S [1:0] $end
$var wire 1 ] a $end
$var wire 1 ^ b $end
$var reg 1 _ out $end
$upscope $end
$scope module cl3 $end
$var wire 2 ` S [1:0] $end
$var wire 1 a a $end
$var wire 1 b b $end
$var reg 1 c out $end
$upscope $end
$scope module cl4 $end
$var wire 2 d S [1:0] $end
$var wire 1 e a $end
$var wire 1 f b $end
$var reg 1 g out $end
$upscope $end
$upscope $end
$upscope $end
$scope task check $end
$var reg 1 h flag_carry $end
$var reg 1 i flag_sign $end
$var reg 1 j flag_zero $end
$var reg 5 k result [4:0] $end
$upscope $end
$upscope $end
$enddefinitions $end
#0
$dumpvars
bx k
xj
xi
xh
0g
1f
0e
b0 d
0c
1b
0a
b0 `
0_
1^
0]
b0 \
0[
1Z
0Y
b0 X
b0 W
b0 V
b1111 U
b0 T
0S
1R
0Q
0P
1O
0N
0M
1L
0K
0J
1I
0H
b0 G
1F
1E
1D
b1111 C
b0 B
b0 A
b0 @
b0 ?
b0 >
b0 =
b0 <
b0 ;
b0 :
b0 9
b1111 8
b0 7
b0 6
b0 5
b0 4
b1111 3
b0 2
b0 1
00
0/
1.
1-
b0 ,
b0 +
b0 *
b0 )
0(
b0 '
b0 &
b0 %
b0 $
1#
0"
1!
$end
#200
b1 &
b1 ,
b1 :
1j
0i
1h
b10000 k
#400
b10 &
b10 ,
b10 :
#600
b11 &
b11 ,
b11 :
#800
b100 &
b100 ,
b100 :
#1000
b101 &
b101 ,
b101 :
#1200
b110 &
b110 ,
b110 :
#1400
b111 &
b111 ,
b111 :
#1600
b1000 &
b1000 ,
b1000 :
#1800
b1001 &
b1001 ,
b1001 :
#2000
b1010 &
b1010 ,
b1010 :
#2200
b1011 &
b1011 ,
b1011 :
#2400
b1100 &
b1100 ,
b1100 :
#2600
b1101 &
b1101 ,
b1101 :
#2800
b1110 &
b1110 ,
b1110 :
#3000
b1111 &
b1111 ,
b1111 :
#3200
1"
0!
1S
0#
1P
0D
b1111 $
b1111 6
b1111 ?
1M
0E
b1111 2
b1111 A
b1111 G
1J
0F
0I
0Z
b1110 3
b1110 8
b1110 C
b1110 U
b1 5
b1 7
b1 ;
b1 %
b1 *
b1 9
b1 =
b0 &
b0 ,
b0 :
#3400
b1 &
b1 ,
b1 :
0j
1i
0h
b1111 k
#3600
b10 &
b10 ,
b10 :
#3800
b11 &
b11 ,
b11 :
#4000
b100 &
b100 ,
b100 :
#4200
b101 &
b101 ,
b101 :
#4400
b110 &
b110 ,
b110 :
#4600
b111 &
b111 ,
b111 :
#4800
b1000 &
b1000 ,
b1000 :
#5000
b1001 &
b1001 ,
b1001 :
#5200
b1010 &
b1010 ,
b1010 :
#5400
b1011 &
b1011 ,
b1011 :
#5600
b1100 &
b1100 ,
b1100 :
#5800
b1101 &
b1101 ,
b1101 :
#6000
b1110 &
b1110 ,
b1110 :
#6200
b1111 &
b1111 ,
b1111 :
#6400
b1110 $
b1110 6
b1110 ?
0J
1F
b1110 2
b1110 A
b1110 G
1M
1I
0L
1Z
0^
b1101 3
b1101 8
b1101 C
b1101 U
b10 5
b10 7
b10 ;
b10 %
b10 *
b10 9
b10 =
b0 &
b0 ,
b0 :
#6600
b1 &
b1 ,
b1 :
b1110 k
#6800
b10 &
b10 ,
b10 :
#7000
b11 &
b11 ,
b11 :
#7200
b100 &
b100 ,
b100 :
#7400
b101 &
b101 ,
b101 :
#7600
b110 &
b110 ,
b110 :
#7800
b111 &
b111 ,
b111 :
#8000
b1000 &
b1000 ,
b1000 :
#8200
b1001 &
b1001 ,
b1001 :
#8400
b1010 &
b1010 ,
b1010 :
#8600
b1011 &
b1011 ,
b1011 :
#8800
b1100 &
b1100 ,
b1100 :
#9000
b1101 &
b1101 ,
b1101 :
#9200
b1110 &
b1110 ,
b1110 :
#9400
b1111 &
b1111 ,
b1111 :
#9600
b1101 $
b1101 6
b1101 ?
0M
b1101 2
b1101 A
b1101 G
1J
0F
0I
0Z
b1100 3
b1100 8
b1100 C
b1100 U
b11 5
b11 7
b11 ;
b11 %
b11 *
b11 9
b11 =
b0 &
b0 ,
b0 :
#9800
b1 &
b1 ,
b1 :
b1101 k
#10000
b10 &
b10 ,
b10 :
#10200
b11 &
b11 ,
b11 :
#10400
b100 &
b100 ,
b100 :
#10600
b101 &
b101 ,
b101 :
#10800
b110 &
b110 ,
b110 :
#11000
b111 &
b111 ,
b111 :
#11200
b1000 &
b1000 ,
b1000 :
#11400
b1001 &
b1001 ,
b1001 :
#11600
b1010 &
b1010 ,
b1010 :
#11800
b1011 &
b1011 ,
b1011 :
#12000
b1100 &
b1100 ,
b1100 :
#12200
b1101 &
b1101 ,
b1101 :
#12400
b1110 &
b1110 ,
b1110 :
#12600
b1111 &
b1111 ,
b1111 :
#12800
1E
b1100 $
b1100 6
b1100 ?
0J
1F
0M
b1100 2
b1100 A
b1100 G
1P
1I
1L
0O
1Z
1^
0b
b1011 3
b1011 8
b1011 C
b1011 U
b100 5
b100 7
b100 ;
b100 %
b100 *
b100 9
b100 =
b0 &
b0 ,
b0 :
#13000
b1 &
b1 ,
b1 :
b1100 k
#13200
b10 &
b10 ,
b10 :
#13400
b11 &
b11 ,
b11 :
#13600
b100 &
b100 ,
b100 :
#13800
b101 &
b101 ,
b101 :
#14000
b110 &
b110 ,
b110 :
#14200
b111 &
b111 ,
b111 :
#14400
b1000 &
b1000 ,
b1000 :
#14600
b1001 &
b1001 ,
b1001 :
#14800
b1010 &
b1010 ,
b1010 :
#15000
b1011 &
b1011 ,
b1011 :
#15200
b1100 &
b1100 ,
b1100 :
#15400
b1101 &
b1101 ,
b1101 :
#15600
b1110 &
b1110 ,
b1110 :
#15800
b1111 &
b1111 ,
b1111 :
#16000
0P
b1011 $
b1011 6
b1011 ?
1M
0E
b1011 2
b1011 A
b1011 G
1J
0F
0I
0Z
b1010 3
b1010 8
b1010 C
b1010 U
b101 5
b101 7
b101 ;
b101 %
b101 *
b101 9
b101 =
b0 &
b0 ,
b0 :
#16200
b1 &
b1 ,
b1 :
b1011 k
#16400
b10 &
b10 ,
b10 :
#16600
b11 &
b11 ,
b11 :
#16800
b100 &
b100 ,
b100 :
#17000
b101 &
b101 ,
b101 :
#17200
b110 &
b110 ,
b110 :
#17400
b111 &
b111 ,
b111 :
#17600
b1000 &
b1000 ,
b1000 :
#17800
b1001 &
b1001 ,
b1001 :
#18000
b1010 &
b1010 ,
b1010 :
#18200
b1011 &
b1011 ,
b1011 :
#18400
b1100 &
b1100 ,
b1100 :
#18600
b1101 &
b1101 ,
b1101 :
#18800
b1110 &
b1110 ,
b1110 :
#19000
b1111 &
b1111 ,
b1111 :
#19200
b1010 $
b1010 6
b1010 ?
0J
1F
b1010 2
b1010 A
b1010 G
1M
1I
0L
1Z
0^
b1001 3
b1001 8
b1001 C
b1001 U
b110 5
b110 7
b110 ;
b110 %
b110 *
b110 9
b110 =
b0 &
b0 ,
b0 :
#19400
b1 &
b1 ,
b1 :
b1010 k
#19600
b10 &
b10 ,
b10 :
#19800
b11 &
b11 ,
b11 :
#20000
b100 &
b100 ,
b100 :
#20200
b101 &
b101 ,
b101 :
#20400
b110 &
b110 ,
b110 :
#20600
b111 &
b111 ,
b111 :
#20800
b1000 &
b1000 ,
b1000 :
#21000
b1001 &
b1001 ,
b1001 :
#21200
b1010 &
b1010 ,
b1010 :
#21400
b1011 &
b1011 ,
b1011 :
#21600
b1100 &
b1100 ,
b1100 :
#21800
b1101 &
b1101 ,
b1101 :
#22000
b1110 &
b1110 ,
b1110 :
#22200
b1111 &
b1111 ,
b1111 :
#22400
b1001 $
b1001 6
b1001 ?
0M
b1001 2
b1001 A
b1001 G
1J
0F
0I
0Z
b1000 3
b1000 8
b1000 C
b1000 U
b111 5
b111 7
b111 ;
b111 %
b111 *
b111 9
b111 =
b0 &
b0 ,
b0 :
#22600
b1 &
b1 ,
b1 :
b1001 k
#22800
b10 &
b10 ,
b10 :
#23000
b11 &
b11 ,
b11 :
#23200
b100 &
b100 ,
b100 :
#23400
b101 &
b101 ,
b101 :
#23600
b110 &
b110 ,
b110 :
#23800
b111 &
b111 ,
b111 :
#24000
b1000 &
b1000 ,
b1000 :
#24200
b1001 &
b1001 ,
b1001 :
#24400
b1010 &
b1010 ,
b1010 :
#24600
b1011 &
b1011 ,
b1011 :
#24800
b1100 &
b1100 ,
b1100 :
#25000
b1101 &
b1101 ,
b1101 :
#25200
b1110 &
b1110 ,
b1110 :
#25400
b1111 &
b1111 ,
b1111 :
#25600
0!
1D
1"
1E
b1000 $
b1000 6
b1000 ?
0J
1F
0M
0P
b1000 2
b1000 A
b1000 G
1S
1I
1L
1O
0R
1Z
1^
1b
0f
b111 3
b111 8
b111 C
b111 U
b1000 5
b1000 7
b1000 ;
b1000 %
b1000 *
b1000 9
b1000 =
b0 &
b0 ,
b0 :
#25800
b1 &
b1 ,
b1 :
b1000 k
#26000
b10 &
b10 ,
b10 :
#26200
b11 &
b11 ,
b11 :
#26400
b100 &
b100 ,
b100 :
#26600
b101 &
b101 ,
b101 :
#26800
b110 &
b110 ,
b110 :
#27000
b111 &
b111 ,
b111 :
#27200
b1000 &
b1000 ,
b1000 :
#27400
b1001 &
b1001 ,
b1001 :
#27600
b1010 &
b1010 ,
b1010 :
#27800
b1011 &
b1011 ,
b1011 :
#28000
b1100 &
b1100 ,
b1100 :
#28200
b1101 &
b1101 ,
b1101 :
#28400
b1110 &
b1110 ,
b1110 :
#28600
b1111 &
b1111 ,
b1111 :
#28800
0"
0S
1P
0D
b111 $
b111 6
b111 ?
1M
0E
b111 2
b111 A
b111 G
1J
0F
0I
0Z
b110 3
b110 8
b110 C
b110 U
b1001 5
b1001 7
b1001 ;
b1001 %
b1001 *
b1001 9
b1001 =
b0 &
b0 ,
b0 :
#29000
b1 &
b1 ,
b1 :
0i
b111 k
#29200
b10 &
b10 ,
b10 :
#29400
b11 &
b11 ,
b11 :
#29600
b100 &
b100 ,
b100 :
#29800
b101 &
b101 ,
b101 :
#30000
b110 &
b110 ,
b110 :
#30200
b111 &
b111 ,
b111 :
#30400
b1000 &
b1000 ,
b1000 :
#30600
b1001 &
b1001 ,
b1001 :
#30800
b1010 &
b1010 ,
b1010 :
#31000
b1011 &
b1011 ,
b1011 :
#31200
b1100 &
b1100 ,
b1100 :
#31400
b1101 &
b1101 ,
b1101 :
#31600
b1110 &
b1110 ,
b1110 :
#31800
b1111 &
b1111 ,
b1111 :
#32000
b110 $
b110 6
b110 ?
0J
1F
b110 2
b110 A
b110 G
1M
1I
0L
1Z
0^
b101 3
b101 8
b101 C
b101 U
b1010 5
b1010 7
b1010 ;
b1010 %
b1010 *
b1010 9
b1010 =
b0 &
b0 ,
b0 :
#32200
b1 &
b1 ,
b1 :
b110 k
#32400
b10 &
b10 ,
b10 :
#32600
b11 &
b11 ,
b11 :
#32800
b100 &
b100 ,
b100 :
#33000
b101 &
b101 ,
b101 :
#33200
b110 &
b110 ,
b110 :
#33400
b111 &
b111 ,
b111 :
#33600
b1000 &
b1000 ,
b1000 :
#33800
b1001 &
b1001 ,
b1001 :
#34000
b1010 &
b1010 ,
b1010 :
#34200
b1011 &
b1011 ,
b1011 :
#34400
b1100 &
b1100 ,
b1100 :
#34600
b1101 &
b1101 ,
b1101 :
#34800
b1110 &
b1110 ,
b1110 :
#35000
b1111 &
b1111 ,
b1111 :
#35200
b101 $
b101 6
b101 ?
0M
b101 2
b101 A
b101 G
1J
0F
0I
0Z
b100 3
b100 8
b100 C
b100 U
b1011 5
b1011 7
b1011 ;
b1011 %
b1011 *
b1011 9
b1011 =
b0 &
b0 ,
b0 :
#35400
b1 &
b1 ,
b1 :
b101 k
#35600
b10 &
b10 ,
b10 :
#35800
b11 &
b11 ,
b11 :
#36000
b100 &
b100 ,
b100 :
#36200
b101 &
b101 ,
b101 :
#36400
b110 &
b110 ,
b110 :
#36600
b111 &
b111 ,
b111 :
#36800
b1000 &
b1000 ,
b1000 :
#37000
b1001 &
b1001 ,
b1001 :
#37200
b1010 &
b1010 ,
b1010 :
#37400
b1011 &
b1011 ,
b1011 :
#37600
b1100 &
b1100 ,
b1100 :
#37800
b1101 &
b1101 ,
b1101 :
#38000
b1110 &
b1110 ,
b1110 :
#38200
b1111 &
b1111 ,
b1111 :
#38400
1E
b100 $
b100 6
b100 ?
0J
1F
0M
b100 2
b100 A
b100 G
1P
1I
1L
0O
1Z
1^
0b
b11 3
b11 8
b11 C
b11 U
b1100 5
b1100 7
b1100 ;
b1100 %
b1100 *
b1100 9
b1100 =
b0 &
b0 ,
b0 :
#38600
b1 &
b1 ,
b1 :
b100 k
#38800
b10 &
b10 ,
b10 :
#39000
b11 &
b11 ,
b11 :
#39200
b100 &
b100 ,
b100 :
#39400
b101 &
b101 ,
b101 :
#39600
b110 &
b110 ,
b110 :
#39800
b111 &
b111 ,
b111 :
#40000
b1000 &
b1000 ,
b1000 :
#40200
b1001 &
b1001 ,
b1001 :
#40400
b1010 &
b1010 ,
b1010 :
#40600
b1011 &
b1011 ,
b1011 :
#40800
b1100 &
b1100 ,
b1100 :
#41000
b1101 &
b1101 ,
b1101 :
#41200
b1110 &
b1110 ,
b1110 :
#41400
b1111 &
b1111 ,
b1111 :
#41600
0P
b11 $
b11 6
b11 ?
1M
0E
b11 2
b11 A
b11 G
1J
0F
0I
0Z
b10 3
b10 8
b10 C
b10 U
b1101 5
b1101 7
b1101 ;
b1101 %
b1101 *
b1101 9
b1101 =
b0 &
b0 ,
b0 :
#41800
b1 &
b1 ,
b1 :
b11 k
#42000
b10 &
b10 ,
b10 :
#42200
b11 &
b11 ,
b11 :
#42400
b100 &
b100 ,
b100 :
#42600
b101 &
b101 ,
b101 :
#42800
b110 &
b110 ,
b110 :
#43000
b111 &
b111 ,
b111 :
#43200
b1000 &
b1000 ,
b1000 :
#43400
b1001 &
b1001 ,
b1001 :
#43600
b1010 &
b1010 ,
b1010 :
#43800
b1011 &
b1011 ,
b1011 :
#44000
b1100 &
b1100 ,
b1100 :
#44200
b1101 &
b1101 ,
b1101 :
#44400
b1110 &
b1110 ,
b1110 :
#44600
b1111 &
b1111 ,
b1111 :
#44800
0!
b10 $
b10 6
b10 ?
0J
1F
b10 2
b10 A
b10 G
1M
1I
0L
1Z
0^
b1 3
b1 8
b1 C
b1 U
b1110 5
b1110 7
b1110 ;
b1110 %
b1110 *
b1110 9
b1110 =
b0 &
b0 ,
b0 :
#45000
b1 &
b1 ,
b1 :
b10 k
#45200
b10 &
b10 ,
b10 :
#45400
b11 &
b11 ,
b11 :
#45600
b100 &
b100 ,
b100 :
#45800
b101 &
b101 ,
b101 :
#46000
b110 &
b110 ,
b110 :
#46200
b111 &
b111 ,
b111 :
#46400
b1000 &
b1000 ,
b1000 :
#46600
b1001 &
b1001 ,
b1001 :
#46800
b1010 &
b1010 ,
b1010 :
#47000
b1011 &
b1011 ,
b1011 :
#47200
b1100 &
b1100 ,
b1100 :
#47400
b1101 &
b1101 ,
b1101 :
#47600
b1110 &
b1110 ,
b1110 :
#47800
b1111 &
b1111 ,
b1111 :
#48000
b1 $
b1 6
b1 ?
0M
b1 2
b1 A
b1 G
1J
0F
0I
0Z
b0 3
b0 8
b0 C
b0 U
b1111 5
b1111 7
b1111 ;
b1111 %
b1111 *
b1111 9
b1111 =
b0 &
b0 ,
b0 :
#48200
b1 &
b1 ,
b1 :
b1 k
#48400
b10 &
b10 ,
b10 :
#48600
b11 &
b11 ,
b11 :
#48800
b100 &
b100 ,
b100 :
#49000
b101 &
b101 ,
b101 :
#49200
b110 &
b110 ,
b110 :
#49400
b111 &
b111 ,
b111 :
#49600
b1000 &
b1000 ,
b1000 :
#49800
b1001 &
b1001 ,
b1001 :
#50000
b1010 &
b1010 ,
b1010 :
#50200
b1011 &
b1011 ,
b1011 :
#50400
b1100 &
b1100 ,
b1100 :
#50600
b1101 &
b1101 ,
b1101 :
#50800
b1110 &
b1110 ,
b1110 :
#51000
b1111 &
b1111 ,
b1111 :
#51200
1!
1#
1D
0"
1E
b0 $
b0 6
b0 ?
0J
1F
0M
0P
b0 2
b0 A
b0 G
0S
1[
1_
1c
b1111 1
b1111 @
b1111 W
1g
1I
1L
1O
1R
1Z
1^
1b
1f
10
b1111 3
b1111 8
b1111 C
b1111 U
b0 5
b0 7
b0 ;
b1 '
b1 +
b1 V
b1 X
b1 \
b1 `
b1 d
b0 %
b0 *
b0 9
b0 =
b0 &
b0 ,
b0 :
#51400
1"
0!
1S
0#
1P
0D
b1111 $
b1111 6
b1111 ?
1M
0E
b1111 2
b1111 A
b1111 G
1J
0F
b1110 1
b1110 @
b1110 W
0[
0I
0Z
b1110 3
b1110 8
b1110 C
b1110 U
b1 5
b1 7
b1 ;
b1 &
b1 ,
b1 :
1j
1h
b10000 k
#51600
b1110 $
b1110 6
b1110 ?
0J
1F
b1110 2
b1110 A
b1110 G
1M
1[
b1101 1
b1101 @
b1101 W
0_
1I
0L
1Z
0^
b1101 3
b1101 8
b1101 C
b1101 U
b10 5
b10 7
b10 ;
b10 &
b10 ,
b10 :
0j
1i
0h
b1111 k
#51800
b1101 $
b1101 6
b1101 ?
0M
b1101 2
b1101 A
b1101 G
1J
0F
b1100 1
b1100 @
b1100 W
0[
0I
0Z
b1100 3
b1100 8
b1100 C
b1100 U
b11 5
b11 7
b11 ;
b11 &
b11 ,
b11 :
b1110 k
#52000
1E
b1100 $
b1100 6
b1100 ?
0J
1F
0M
b1100 2
b1100 A
b1100 G
1P
1[
1_
b1011 1
b1011 @
b1011 W
0c
1I
1L
0O
1Z
1^
0b
b1011 3
b1011 8
b1011 C
b1011 U
b100 5
b100 7
b100 ;
b100 &
b100 ,
b100 :
b1101 k
#52200
0P
b1011 $
b1011 6
b1011 ?
1M
0E
b1011 2
b1011 A
b1011 G
1J
0F
b1010 1
b1010 @
b1010 W
0[
0I
0Z
b1010 3
b1010 8
b1010 C
b1010 U
b101 5
b101 7
b101 ;
b101 &
b101 ,
b101 :
b1100 k
#52400
b1010 $
b1010 6
b1010 ?
0J
1F
b1010 2
b1010 A
b1010 G
1M
1[
b1001 1
b1001 @
b1001 W
0_
1I
0L
1Z
0^
b1001 3
b1001 8
b1001 C
b1001 U
b110 5
b110 7
b110 ;
b110 &
b110 ,
b110 :
b1011 k
#52600
b1001 $
b1001 6
b1001 ?
0M
b1001 2
b1001 A
b1001 G
1J
0F
b1000 1
b1000 @
b1000 W
0[
0I
0Z
b1000 3
b1000 8
b1000 C
b1000 U
b111 5
b111 7
b111 ;
b111 &
b111 ,
b111 :
b1010 k
#52800
0!
1D
1"
1E
b1000 $
b1000 6
b1000 ?
0J
1F
0M
0P
b1000 2
b1000 A
b1000 G
1S
1[
1_
1c
b111 1
b111 @
b111 W
0g
1I
1L
1O
0R
1Z
1^
1b
0f
b111 3
b111 8
b111 C
b111 U
b1000 5
b1000 7
b1000 ;
b1000 &
b1000 ,
b1000 :
b1001 k
#53000
0"
0S
1P
0D
b111 $
b111 6
b111 ?
1M
0E
b111 2
b111 A
b111 G
1J
0F
b110 1
b110 @
b110 W
0[
0I
0Z
b110 3
b110 8
b110 C
b110 U
b1001 5
b1001 7
b1001 ;
b1001 &
b1001 ,
b1001 :
b1000 k
#53200
b110 $
b110 6
b110 ?
0J
1F
b110 2
b110 A
b110 G
1M
1[
b101 1
b101 @
b101 W
0_
1I
0L
1Z
0^
b101 3
b101 8
b101 C
b101 U
b1010 5
b1010 7
b1010 ;
b1010 &
b1010 ,
b1010 :
0i
b111 k
#53400
b101 $
b101 6
b101 ?
0M
b101 2
b101 A
b101 G
1J
0F
b100 1
b100 @
b100 W
0[
0I
0Z
b100 3
b100 8
b100 C
b100 U
b1011 5
b1011 7
b1011 ;
b1011 &
b1011 ,
b1011 :
b110 k
#53600
1E
b100 $
b100 6
b100 ?
0J
1F
0M
b100 2
b100 A
b100 G
1P
1[
1_
b11 1
b11 @
b11 W
0c
1I
1L
0O
1Z
1^
0b
b11 3
b11 8
b11 C
b11 U
b1100 5
b1100 7
b1100 ;
b1100 &
b1100 ,
b1100 :
b101 k
#53800
0P
b11 $
b11 6
b11 ?
1M
0E
b11 2
b11 A
b11 G
1J
0F
b10 1
b10 @
b10 W
0[
0I
0Z
b10 3
b10 8
b10 C
b10 U
b1101 5
b1101 7
b1101 ;
b1101 &
b1101 ,
b1101 :
b100 k
#54000
0!
b10 $
b10 6
b10 ?
0J
1F
b10 2
b10 A
b10 G
1M
1[
b1 1
b1 @
b1 W
0_
1I
0L
1Z
0^
b1 3
b1 8
b1 C
b1 U
b1110 5
b1110 7
b1110 ;
b1110 &
b1110 ,
b1110 :
b11 k
#54200
b1 $
b1 6
b1 ?
0M
b1 2
b1 A
b1 G
1J
0F
b0 1
b0 @
b0 W
0[
0I
0Z
b0 3
b0 8
b0 C
b0 U
b1111 5
b1111 7
b1111 ;
b1111 &
b1111 ,
b1111 :
b10 k
#54400
1!
1#
1D
0"
1E
b0 $
b0 6
b0 ?
0J
1F
0M
0P
b0 2
b0 A
b0 G
0S
1[
1_
1c
b1111 1
b1111 @
b1111 W
1g
1I
1L
1O
1R
1Z
1^
1b
1f
b1111 3
b1111 8
b1111 C
b1111 U
b0 5
b0 7
b0 ;
b1 %
b1 *
b1 9
b1 =
b0 &
b0 ,
b0 :
b1 k
#54600
1"
0!
1S
0#
1P
0D
b1111 $
b1111 6
b1111 ?
1M
0E
b1111 2
b1111 A
b1111 G
1J
0F
b1110 1
b1110 @
b1110 W
0[
0I
0Z
b1110 3
b1110 8
b1110 C
b1110 U
b1 5
b1 7
b1 ;
b1 &
b1 ,
b1 :
1j
1h
b10000 k
#54800
b1110 $
b1110 6
b1110 ?
0J
1F
b1110 2
b1110 A
b1110 G
1M
1[
b1101 1
b1101 @
b1101 W
0_
1I
0L
1Z
0^
b1101 3
b1101 8
b1101 C
b1101 U
b10 5
b10 7
b10 ;
b10 &
b10 ,
b10 :
0j
1i
0h
b1111 k
#55000
b1101 $
b1101 6
b1101 ?
0M
b1101 2
b1101 A
b1101 G
1J
0F
b1100 1
b1100 @
b1100 W
0[
0I
0Z
b1100 3
b1100 8
b1100 C
b1100 U
b11 5
b11 7
b11 ;
b11 &
b11 ,
b11 :
b1110 k
#55200
1E
b1100 $
b1100 6
b1100 ?
0J
1F
0M
b1100 2
b1100 A
b1100 G
1P
1[
1_
b1011 1
b1011 @
b1011 W
0c
1I
1L
0O
1Z
1^
0b
b1011 3
b1011 8
b1011 C
b1011 U
b100 5
b100 7
b100 ;
b100 &
b100 ,
b100 :
b1101 k
#55400
0P
b1011 $
b1011 6
b1011 ?
1M
0E
b1011 2
b1011 A
b1011 G
1J
0F
b1010 1
b1010 @
b1010 W
0[
0I
0Z
b1010 3
b1010 8
b1010 C
b1010 U
b101 5
b101 7
b101 ;
b101 &
b101 ,
b101 :
b1100 k
#55600
b1010 $
b1010 6
b1010 ?
0J
1F
b1010 2
b1010 A
b1010 G
1M
1[
b1001 1
b1001 @
b1001 W
0_
1I
0L
1Z
0^
b1001 3
b1001 8
b1001 C
b1001 U
b110 5
b110 7
b110 ;
b110 &
b110 ,
b110 :
b1011 k
#55800
b1001 $
b1001 6
b1001 ?
0M
b1001 2
b1001 A
b1001 G
1J
0F
b1000 1
b1000 @
b1000 W
0[
0I
0Z
b1000 3
b1000 8
b1000 C
b1000 U
b111 5
b111 7
b111 ;
b111 &
b111 ,
b111 :
b1010 k
#56000
0!
1D
1"
1E
b1000 $
b1000 6
b1000 ?
0J
1F
0M
0P
b1000 2
b1000 A
b1000 G
1S
1[
1_
1c
b111 1
b111 @
b111 W
0g
1I
1L
1O
0R
1Z
1^
1b
0f
b111 3
b111 8
b111 C
b111 U
b1000 5
b1000 7
b1000 ;
b1000 &
b1000 ,
b1000 :
b1001 k
#56200
0"
0S
1P
0D
b111 $
b111 6
b111 ?
1M
0E
b111 2
b111 A
b111 G
1J
0F
b110 1
b110 @
b110 W
0[
0I
0Z
b110 3
b110 8
b110 C
b110 U
b1001 5
b1001 7
b1001 ;
b1001 &
b1001 ,
b1001 :
b1000 k
#56400
b110 $
b110 6
b110 ?
0J
1F
b110 2
b110 A
b110 G
1M
1[
b101 1
b101 @
b101 W
0_
1I
0L
1Z
0^
b101 3
b101 8
b101 C
b101 U
b1010 5
b1010 7
b1010 ;
b1010 &
b1010 ,
b1010 :
0i
b111 k
#56600
b101 $
b101 6
b101 ?
0M
b101 2
b101 A
b101 G
1J
0F
b100 1
b100 @
b100 W
0[
0I
0Z
b100 3
b100 8
b100 C
b100 U
b1011 5
b1011 7
b1011 ;
b1011 &
b1011 ,
b1011 :
b110 k
#56800
1E
b100 $
b100 6
b100 ?
0J
1F
0M
b100 2
b100 A
b100 G
1P
1[
1_
b11 1
b11 @
b11 W
0c
1I
1L
0O
1Z
1^
0b
b11 3
b11 8
b11 C
b11 U
b1100 5
b1100 7
b1100 ;
b1100 &
b1100 ,
b1100 :
b101 k
#57000
0P
b11 $
b11 6
b11 ?
1M
0E
b11 2
b11 A
b11 G
1J
0F
b10 1
b10 @
b10 W
0[
0I
0Z
b10 3
b10 8
b10 C
b10 U
b1101 5
b1101 7
b1101 ;
b1101 &
b1101 ,
b1101 :
b100 k
#57200
0!
b10 $
b10 6
b10 ?
0J
1F
b10 2
b10 A
b10 G
1M
1[
b1 1
b1 @
b1 W
0_
1I
0L
1Z
0^
b1 3
b1 8
b1 C
b1 U
b1110 5
b1110 7
b1110 ;
b1110 &
b1110 ,
b1110 :
b11 k
#57400
b1 $
b1 6
b1 ?
0M
b1 2
b1 A
b1 G
1J
0F
b0 1
b0 @
b0 W
0[
0I
0Z
b0 3
b0 8
b0 C
b0 U
b1111 5
b1111 7
b1111 ;
b1111 &
b1111 ,
b1111 :
b10 k
#57600
1!
1#
1D
0"
1E
b0 $
b0 6
b0 ?
0J
1F
0M
0P
b0 2
b0 A
b0 G
0S
1[
1_
1c
b1111 1
b1111 @
b1111 W
1g
1I
1L
1O
1R
1Z
1^
1b
1f
b1111 3
b1111 8
b1111 C
b1111 U
b0 5
b0 7
b0 ;
b10 %
b10 *
b10 9
b10 =
b0 &
b0 ,
b0 :
b1 k
#57800
1"
0!
1S
0#
1P
0D
b1111 $
b1111 6
b1111 ?
1M
0E
b1111 2
b1111 A
b1111 G
1J
0F
b1110 1
b1110 @
b1110 W
0[
0I
0Z
b1110 3
b1110 8
b1110 C
b1110 U
b1 5
b1 7
b1 ;
b1 &
b1 ,
b1 :
1j
1h
b10000 k
