practica2/cpu_tb.vcd
$date
	Tue Nov 21 19:31:29 2023
$end
$version
	Icarus Verilog
$end
$timescale
	10ps
$end
$scope module microc_tb $end
$var wire 1 ! test_zero $end
$var wire 6 " test_Opcode [5:0] $end
$var reg 3 # test_ALUOp [2:0] $end
$var reg 1 $ test_clk $end
$var reg 1 % test_reset $end
$var reg 1 & test_s_inc $end
$var reg 1 ' test_s_inm $end
$var reg 1 ( test_we3 $end
$var reg 1 ) test_wez $end
$scope module microc_1 $end
$var wire 3 * ALUOp [2:0] $end
$var wire 16 + OUT [15:0] $end
$var wire 1 $ clk $end
$var wire 1 % reset $end
$var wire 1 & s_inc $end
$var wire 1 ' s_inm $end
$var wire 1 ( we $end
$var wire 1 ) wez $end
$var wire 1 ! zero $end
$var wire 1 , zALU $end
$var wire 10 - salto [9:0] $end
$var wire 10 . s_sum_a_mux1 [9:0] $end
$var wire 10 / s_pc_out [9:0] $end
$var wire 8 0 s_mux3_a_alu [7:0] $end
$var wire 4 1 s_mux2_a_banco [3:0] $end
$var wire 10 2 s_mux1_a_pc [9:0] $end
$var wire 8 3 WD3 [7:0] $end
$var wire 4 4 WA3 [3:0] $end
$var wire 8 5 RD2 [7:0] $end
$var wire 8 6 RD1 [7:0] $end
$var wire 4 7 RA2 [3:0] $end
$var wire 4 8 RA1 [3:0] $end
$var wire 6 9 Opcode [5:0] $end
$var wire 8 : Inm [7:0] $end
$scope module alu_1 $end
$var wire 3 ; Op [2:0] $end
$var wire 8 < B [7:0] $end
$var wire 8 = A [7:0] $end
$var reg 8 > S [7:0] $end
$var reg 1 , zero $end
$upscope $end
$scope module flipflop $end
$var wire 1 ) carga $end
$var wire 1 $ clk $end
$var wire 1 , d $end
$var wire 1 % reset $end
$var reg 1 ! q $end
$upscope $end
$scope module memprog1 $end
$var wire 16 ? OUT [15:0] $end
$var wire 1 $ clk $end
$var wire 1 @ Datum $end
$var wire 10 A Address [9:0] $end
$upscope $end
$scope module mux_1 $end
$var wire 10 B D0 [9:0] $end
$var wire 1 & s $end
$var wire 10 C Y [9:0] $end
$var wire 10 D D1 [9:0] $end
$upscope $end
$scope module mux_2 $end
$var wire 4 E D0 [3:0] $end
$var wire 4 F D1 [3:0] $end
$var wire 1 ' s $end
$var wire 4 G Y [3:0] $end
$upscope $end
$scope module mux_3 $end
$var wire 8 H D1 [7:0] $end
$var wire 1 ' s $end
$var wire 8 I Y [7:0] $end
$var wire 8 J D0 [7:0] $end
$upscope $end
$scope module regfile_1 $end
$var wire 4 K RA1 [3:0] $end
$var wire 4 L RA2 [3:0] $end
$var wire 4 M WA3 [3:0] $end
$var wire 8 N WD3 [7:0] $end
$var wire 1 $ clk $end
$var wire 1 ( we3 $end
$var wire 8 O RD2 [7:0] $end
$var wire 8 P RD1 [7:0] $end
$upscope $end
$scope module registro_1 $end
$var wire 10 Q D [9:0] $end
$var wire 1 $ clk $end
$var wire 1 % reset $end
$var reg 10 R Q [9:0] $end
$upscope $end
$scope module sum_1 $end
$var wire 10 S A [9:0] $end
$var wire 10 T B [9:0] $end
$var wire 10 U Y [9:0] $end
$upscope $end
$upscope $end
$upscope $end
$enddefinitions $end
#0
$dumpvars
b1 U
b0 T
b1 S
b0 R
bx Q
bx P
bx O
bx N
bz M
bz L
bz K
bx J
bx I
bz H
bz G
bz F
bz E
b1 D
bx C
bz B
b0 A
1@
bz ?
bx >
bx =
bx <
bx ;
bz :
bz 9
bz 8
bz 7
bx 6
bx 5
bz 4
bx 3
bx 2
bz 1
bx 0
b0 /
b1 .
bz -
x,
bz +
bx *
x)
x(
x'
x&
1%
1$
bx #
bz "
0!
$end
#1000
0%
#2000
bz 3
bz >
bz N
bz 0
bz <
bz I
b1 2
b1 C
b1 Q
b0 #
b0 *
b0 ;
1)
1(
1'
1&
0$
#4000
b10 2
b10 C
b10 Q
0@
b10 .
b10 D
b10 U
b1 /
b1 A
b1 R
b1 T
x!
1$
#6000
bx 3
bx >
bx N
bx 0
bx <
bx I
0$
0'
#8000
b11 2
b11 C
b11 Q
b11 .
b11 D
b11 U
b10 /
b10 A
b10 R
b10 T
1$
#10000
bz 3
bz >
bz N
bz 0
bz <
bz I
0$
1'
#12000
b100 2
b100 C
b100 Q
1@
b100 .
b100 D
b100 U
b11 /
b11 A
b11 R
b11 T
1$
#14000
0$
#16000
b101 2
b101 C
b101 Q
0@
b101 .
b101 D
b101 U
b100 /
b100 A
b100 R
b100 T
1$
#18000
bx 3
bx >
bx N
bx 0
bx <
bx I
bz 2
bz C
bz Q
0$
b100 #
b100 *
b100 ;
0'
0&
#20000
x@
bx .
bx D
bx U
bz /
bz A
bz R
bz T
1$
#22000
0$
b0 #
b0 *
b0 ;
#24000
1$
#26000
0$
b10 #
b10 *
b10 ;
#28000
1$
#30000
bx 2
bx C
bx Q
0$
b11 #
b11 *
b11 ;
1&
#32000
bx /
bx A
bx R
bx T
1$
#34000
bz 2
bz C
bz Q
0$
b0 #
b0 *
b0 ;
0&
#36000
bz /
bz A
bz R
bz T
1$
#38000
0$
b100 #
b100 *
b100 ;
#40000
1$
#42000
0$
b0 #
b0 *
b0 ;
#44000
1$
#46000
bz 0
bz <
bz I
bx 2
bx C
bx Q
0$
b10 #
b10 *
b10 ;
1'
1&
#48000
bx /
bx A
bx R
bx T
1$
#50000
bz 2
bz C
bz Q
0$
b100 #
b100 *
b100 ;
0&
#52000
bz /
bz A
bz R
bz T
1$
#54000
bx 2
bx C
bx Q
0$
b11 #
b11 *
b11 ;
1&
#56000
bx /
bx A
bx R
bx T
1$
#58000
bz 3
bz >
bz N
bz 2
bz C
bz Q
0$
b0 #
b0 *
b0 ;
0&
#60000
bz /
bz A
bz R
bz T
1$
#62000
bx 3
bx >
bx N
bx 2
bx C
bx Q
0$
b110 #
b110 *
b110 ;
1&
#64000
bx /
bx A
bx R
bx T
1$
#66000
bz 3
bz >
bz N
bz 2
bz C
bz Q
0$
b0 #
b0 *
b0 ;
0&
#68000
bz /
bz A
bz R
bz T
1$
#70000
bx 3
bx >
bx N
bx 2
bx C
bx Q
0$
b110 #
b110 *
b110 ;
1&
#72000
bx /
bx A
bx R
bx T
1$
#74000
bx 0
bx <
bx I
bz 2
bz C
bz Q
0$
b0 #
b0 *
b0 ;
0'
0&
#76000
bz /
bz A
bz R
bz T
1$
